EE1193/Adders/CSA.vcd
$date
	Tue Apr 23 10:10:40 2019
$end
$version
	Icarus Verilog
$end
$timescale
	1s
$end
$scope module tb_adder $end
$var wire 5 ! s [4:0] $end
$var wire 1 " cout $end
$var reg 4 # x [3:0] $end
$var reg 4 $ y [3:0] $end
$var reg 4 % z [3:0] $end
$var integer 32 & error [31:0] $end
$var integer 32 ' i [31:0] $end
$var integer 32 ( j [31:0] $end
$var integer 32 ) k [31:0] $end
$scope module uut $end
$var wire 4 * x [3:0] $end
$var wire 4 + y [3:0] $end
$var wire 4 , z [3:0] $end
$var wire 4 - s1 [3:0] $end
$var wire 5 . s [4:0] $end
$var wire 1 " cout $end
$var wire 4 / c2 [3:0] $end
$var wire 4 0 c1 [3:0] $end
$scope module fa_inst10 $end
$var wire 1 1 a $end
$var wire 1 2 b $end
$var wire 1 3 carry $end
$var wire 1 4 cin $end
$var wire 1 5 sum $end
$upscope $end
$scope module fa_inst11 $end
$var wire 1 6 a $end
$var wire 1 7 b $end
$var wire 1 8 carry $end
$var wire 1 9 cin $end
$var wire 1 : sum $end
$upscope $end
$scope module fa_inst12 $end
$var wire 1 ; a $end
$var wire 1 < b $end
$var wire 1 = carry $end
$var wire 1 > cin $end
$var wire 1 ? sum $end
$upscope $end
$scope module fa_inst13 $end
$var wire 1 @ a $end
$var wire 1 A b $end
$var wire 1 B carry $end
$var wire 1 C cin $end
$var wire 1 D sum $end
$upscope $end
$scope module fa_inst20 $end
$var wire 1 E a $end
$var wire 1 F b $end
$var wire 1 G carry $end
$var wire 1 H cin $end
$var wire 1 I sum $end
$upscope $end
$scope module fa_inst21 $end
$var wire 1 J a $end
$var wire 1 K b $end
$var wire 1 L carry $end
$var wire 1 M cin $end
$var wire 1 N sum $end
$upscope $end
$scope module fa_inst22 $end
$var wire 1 O a $end
$var wire 1 P b $end
$var wire 1 Q carry $end
$var wire 1 R cin $end
$var wire 1 S sum $end
$upscope $end
$scope module fa_inst23 $end
$var wire 1 T a $end
$var wire 1 U b $end
$var wire 1 " carry $end
$var wire 1 V cin $end
$var wire 1 W sum $end
$upscope $end
$upscope $end
$upscope $end
$enddefinitions $end
#0
$dumpvars
0W
0V
0U
0T
0S
0R
0Q
0P
0O
0N
0M
0L
0K
0J
0I
0H
0G
0F
0E
0D
0C
0B
0A
0@
0?
0>
0=
0<
0;
0:
09
08
07
06
05
04
03
02
01
b0 0
b0z /
b0 .
b0 -
b0 ,
b0 +
b0 *
b0 )
b0 (
b0 '
b0 &
b0 %
b0 $
b0 #
0"
b0 !
$end
#10
b1 !
b1 .
b1 -
15
14
b1 %
b1 ,
b1 )
#20
1I
b10 !
b10 .
1E
05
b10 -
1:
04
19
b10 %
b10 ,
b10 )
#30
b11 !
b11 .
b11 -
15
14
b11 %
b11 ,
b11 )
#40
0I
1N
b100 !
b100 .
0E
1J
05
0:
b100 -
1?
04
09
1>
b100 %
b100 ,
b100 )
#50
b101 !
b101 .
b101 -
15
14
b101 %
b101 ,
b101 )
#60
1I
b110 !
b110 .
1E
05
b110 -
1:
04
19
b110 %
b110 ,
b110 )
#70
b111 !
b111 .
b111 -
15
14
b111 %
b111 ,
b111 )
#80
0I
0N
1S
b1000 !
b1000 .
0E
0J
1O
05
0:
0?
b1000 -
1D
04
09
0>
1C
b1000 %
b1000 ,
b1000 )
#90
b1001 !
b1001 .
b1001 -
15
14
b1001 %
b1001 ,
b1001 )
#100
1I
b1010 !
b1010 .
1E
05
b1010 -
1:
04
19
b1010 %
b1010 ,
b1010 )
#110
b1011 !
b1011 .
b1011 -
15
14
b1011 %
b1011 ,
b1011 )
#120
0I
1N
b1100 !
b1100 .
0E
1J
05
0:
b1100 -
1?
04
09
1>
b1100 %
b1100 ,
b1100 )
#130
b1101 !
b1101 .
b1101 -
15
14
b1101 %
b1101 ,
b1101 )
#140
1I
b1110 !
b1110 .
1E
05
b1110 -
1:
04
19
b1110 %
b1110 ,
b1110 )
#150
b1111 !
b1111 .
b1111 -
15
14
b1111 %
b1111 ,
b1111 )
#160
0I
0N
b1 !
b1 .
0S
0E
0J
0O
0:
0?
b1 -
0D
04
09
0>
0C
12
b0 %
b0 ,
b1 $
b1 +
b1 (
b0 )
#170
1I
1F
b1 0
13
b10 !
b10 .
b0 -
05
14
b1 %
b1 ,
b1 )
#180
0N
0M
b0z /
0G
0F
1I
b0 0
03
b11 !
b11 .
1E
15
b11 -
1:
04
19
b10 %
b10 ,
b10 )
#190
1N
1M
b1z /
1G
0I
1F
b1 0
13
b100 !
b100 .
b10 -
05
14
b11 %
b11 ,
b11 )
#200
0M
0S
0G
0R
0F
0I
1N
b0z /
0L
b0 0
03
b101 !
b101 .
0E
1J
15
0:
b101 -
1?
04
09
1>
b100 %
b100 ,
b100 )
#210
1I
1F
b1 0
13
b110 !
b110 .
b100 -
05
14
b101 %
b101 ,
b101 )
#220
0S
0R
0L
1N
0M
b0z /
0G
0F
1I
b0 0
03
b111 !
b111 .
1E
15
b111 -
1:
04
19
b110 %
b110 ,
b110 )
#230
1S
1R
1L
0N
1M
b11z /
1G
0I
1F
b1 0
13
b1000 !
b1000 .
b110 -
05
14
b111 %
b111 ,
b111 )
#240
0M
0W
0G
0R
0V
0F
0I
0N
0L
1S
b0z /
0Q
b0 0
03
b1001 !
b1001 .
0E
0J
1O
15
0:
0?
b1001 -
1D
04
09
0>
1C
b1000 %
b1000 ,
b1000 )
#250
1I
1F
b1 0
13
b1010 !
b1010 .
b1000 -
05
14
b1001 %
b1001 ,
b1001 )
#260
0N
0M
b0z /
0G
0F
1I
b0 0
03
b1011 !
b1011 .
1E
15
b1011 -
1:
04
19
b1010 %
b1010 ,
b1010 )
#270
1N
1M
b1z /
1G
0I
1F
b1 0
13
b1100 !
b1100 .
b1010 -
05
14
b1011 %
b1011 ,
b1011 )
#280
0W
0V
0Q
0M
1S
0G
0R
0F
0I
1N
b0z /
0L
b0 0
03
b1101 !
b1101 .
0E
1J
15
0:
b1101 -
1?
04
09
1>
b1100 %
b1100 ,
b1100 )
#290
1I
1F
b1 0
13
b1110 !
b1110 .
b1100 -
05
14
b1101 %
b1101 ,
b1101 )
#300
0W
0V
0Q
1S
0R
0L
1N
0M
b0z /
0G
0F
1I
b0 0
03
b1111 !
b1111 .
1E
15
b1111 -
1:
04
19
b1110 %
b1110 ,
b1110 )
#310
1W
1V
1Q
0S
1R
1L
0N
1M
b111z /
1G
0I
1F
b1 0
13
b10000 !
b10000 .
b1110 -
05
14
b1111 %
b1111 ,
b1111 )
#320
0M
0G
0W
1I
0R
0V
0N
0L
b10 !
b10 .
0S
b0z /
0Q
0F
b0 0
03
0J
0O
0?
b10 -
0D
04
09
0>
0C
02
17
b0 %
b0 ,
b10 $
b10 +
b10 (
b0 )
#330
b11 !
b11 .
b11 -
15
14
b1 %
b1 ,
b1 )
#340
1N
0I
1K
b10 0
18
b100 !
b100 .
0E
05
b0 -
0:
04
19
b10 %
b10 ,
b10 )
#350
b101 !
b101 .
b1 -
15
14
b11 %
b11 ,
b11 )
#360
0S
0R
b0z /
0L
1I
0K
1N
b0 0
08
b110 !
b110 .
1E
1J
05
1:
b110 -
1?
04
09
1>
b100 %
b100 ,
b100 )
#370
b111 !
b111 .
b111 -
15
14
b101 %
b101 ,
b101 )
#380
1S
1R
b10z /
1L
0N
0I
1K
b10 0
18
b1000 !
b1000 .
0E
05
b100 -
0:
04
19
b110 %
b110 ,
b110 )
#390
b1001 !
b1001 .
b101 -
15
14
b111 %
b111 ,
b111 )
#400
0R
0W
0L
0V
1I
0K
0N
1S
b0z /
0Q
b0 0
08
b1010 !
b1010 .
1E
0J
1O
05
1:
0?
b1010 -
1D
04
09
0>
1C
b1000 %
b1000 ,
b1000 )
#410
b1011 !
b1011 .
b1011 -
15
14
b1001 %
b1001 ,
b1001 )
#420
1N
0I
1K
b10 0
18
b1100 !
b1100 .
0E
05
b1000 -
0:
04
19
b1010 %
b1010 ,
b1010 )
#430
b1101 !
b1101 .
b1001 -
15
14
b1011 %
b1011 ,
b1011 )
#440
0W
0V
0Q
1S
0R
b0z /
0L
1I
0K
1N
b0 0
08
b1110 !
b1110 .
1E
1J
05
1:
b1110 -
1?
04
09
1>
b1100 %
b1100 ,
b1100 )
#450
b1111 !
b1111 .
b1111 -
15
14
b1101 %
b1101 ,
b1101 )
#460
1W
1V
1Q
0S
1R
b110z /
1L
0N
0I
1K
b10 0
18
b10000 !
b10000 .
0E
05
b1100 -
0:
04
19
b1110 %
b1110 ,
b1110 )
#470
b10001 !
b10001 .
b1101 -
15
14
b1111 %
b1111 ,
b1111 )
#480
0R
0W
0L
0V
1I
0K
0N
b11 !
b11 .
0S
b0z /
0Q
b0 0
08
1E
0J
0O
1:
0?
b11 -
0D
04
09
0>
0C
12
b0 %
b0 ,
b11 $
b11 +
b11 (
b0 )
#490
1N
1M
b1z /
1G
0I
1F
b1 0
13
b100 !
b100 .
b10 -
05
14
b1 %
b1 ,
b1 )
#500
0S
0R
0L
0M
1N
b0z /
0G
0F
0I
1K
03
b10 0
18
b101 !
b101 .
0E
15
b1 -
0:
04
19
b10 %
b10 ,
b10 )
#510
1I
1F
b11 0
13
b110 !
b110 .
b0 -
05
14
b11 %
b11 ,
b11 )
#520
0S
0M
0R
0G
b0z /
0L
0F
1I
0K
1N
03
b0 0
08
b111 !
b111 .
1E
1J
15
1:
b111 -
1?
04
09
1>
b100 %
b100 ,
b100 )
#530
1S
1R
1L
0N
1M
b11z /
1G
0I
1F
b1 0
13
b1000 !
b1000 .
b110 -
05
14
b101 %
b101 ,
b101 )
#540
0M
0N
b10z /
0G
0F
0I
1K
03
b10 0
18
b1001 !
b1001 .
0E
15
b101 -
0:
04
19
b110 %
b110 ,
b110 )
#550
1I
1F
b11 0
13
b1010 !
b1010 .
b100 -
05
14
b111 %
b111 ,
b111 )
#560
0M
0R
0W
0G
0L
0V
0F
1I
0K
0N
1S
b0z /
0Q
03
b0 0
08
b1011 !
b1011 .
1E
0J
1O
15
1:
0?
b1011 -
1D
04
09
0>
1C
b1000 %
b1000 ,
b1000 )
#570
1N
1M
b1z /
1G
0I
1F
b1 0
13
b1100 !
b1100 .
b1010 -
05
14
b1001 %
b1001 ,
b1001 )
#580
0W
0V
0Q
1S
0R
0L
0M
1N
b0z /
0G
0F
0I
1K
03
b10 0
18
b1101 !
b1101 .
0E
15
b1001 -
0:
04
19
b1010 %
b1010 ,
b1010 )
#590
1I
1F
b11 0
13
b1110 !
b1110 .
b1000 -
05
14
b1011 %
b1011 ,
b1011 )
#600
0W
0V
0Q
1S
0M
0R
0G
b0z /
0L
0F
1I
0K
1N
03
b0 0
08
b1111 !
b1111 .
1E
1J
15
1:
b1111 -
1?
04
09
1>
b1100 %
b1100 ,
b1100 )
#610
1W
1V
1Q
0S
1R
1L
0N
1M
b111z /
1G
0I
1F
b1 0
13
b10000 !
b10000 .
b1110 -
05
14
b1101 %
b1101 ,
b1101 )
#620
0M
0N
b110z /
0G
0F
0I
1K
03
b10 0
18
b10001 !
b10001 .
0E
15
b1101 -
0:
04
19
b1110 %
b1110 ,
b1110 )
#630
1I
1F
b11 0
13
b10010 !
b10010 .
b1100 -
05
14
b1111 %
b1111 ,
b1111 )
#640
0R
0L
0W
0I
1N
0V
b100 !
b100 .
0S
b0z /
0Q
0F
0K
03
b0 0
08
0O
b100 -
0D
04
09
0>
0C
02
07
1<
b0 %
b0 ,
b100 $
b100 +
b100 (
b0 )
#650
b101 !
b101 .
b101 -
15
14
b1 %
b1 ,
b1 )
#660
1I
b110 !
b110 .
1E
05
b110 -
1:
04
19
b10 %
b10 ,
b10 )
#670
b111 !
b111 .
b111 -
15
14
b11 %
b11 ,
b11 )
#680
1S
0I
0N
1P
b100 0
1=
b1000 !
b1000 .
0E
0J
05
0:
b0 -
0?
04
09
1>
b100 %
b100 ,
b100 )
#690
b1001 !
b1001 .
b1 -
15
14
b101 %
b101 ,
b101 )
#700
1I
b1010 !
b1010 .
1E
05
b10 -
1:
04
19
b110 %
b110 ,
b110 )
#710
b1011 !
b1011 .
b11 -
15
14
b111 %
b111 ,
b111 )
#720
0W
0V
b0z /
0Q
0I
1N
0P
1S
b0 0
0=
b1100 !
b1100 .
0E
1J
1O
05
0:
1?
b1100 -
1D
04
09
0>
1C
b1000 %
b1000 ,
b1000 )
#730
b1101 !
b1101 .
b1101 -
15
14
b1001 %
b1001 ,
b1001 )
#740
1I
b1110 !
b1110 .
1E
05
b1110 -
1:
04
19
b1010 %
b1010 ,
b1010 )
#750
b1111 !
b1111 .
b1111 -
15
14
b1011 %
b1011 ,
b1011 )
#760
1W
1V
b100z /
1Q
0S
0I
0N
1P
b100 0
1=
b10000 !
b10000 .
0E
0J
05
0:
b1000 -
0?
04
09
1>
b1100 %
b1100 ,
b1100 )
#770
b10001 !
b10001 .
b1001 -
15
14
b1101 %
b1101 ,
b1101 )
#780
1I
b10010 !
b10010 .
1E
05
b1010 -
1:
04
19
b1110 %
b1110 ,
b1110 )
#790
b10011 !
b10011 .
b1011 -
15
14
b1111 %
b1111 ,
b1111 )
#800
0W
0V
b0z /
0Q
0I
1N
0P
b101 !
b101 .
0S
b0 0
0=
0E
1J
0O
0:
1?
b101 -
0D
04
09
0>
0C
12
b0 %
b0 ,
b101 $
b101 +
b101 (
b0 )
#810
1I
1F
b1 0
13
b110 !
b110 .
b100 -
05
14
b1 %
b1 ,
b1 )
#820
0S
0R
0L
1N
0M
b0z /
0G
0F
1I
b0 0
03
b111 !
b111 .
1E
15
b111 -
1:
04
19
b10 %
b10 ,
b10 )
#830
1S
1R
1L
0N
1M
b11z /
1G
0I
1F
b1 0
13
b1000 !
b1000 .
b110 -
05
14
b11 %
b11 ,
b11 )
#840
0W
0V
0Q
0M
0G
0R
0F
0I
0N
b0z /
0L
1P
03
b100 0
1=
b1001 !
b1001 .
0E
0J
15
0:
b1 -
0?
04
09
1>
b100 %
b100 ,
b100 )
#850
1I
1F
b101 0
13
b1010 !
b1010 .
b0 -
05
14
b101 %
b101 ,
b101 )
#860
0N
0M
b0z /
0G
0F
1I
b100 0
03
b1011 !
b1011 .
1E
15
b11 -
1:
04
19
b110 %
b110 ,
b110 )
#870
1N
1M
b1z /
1G
0I
1F
b101 0
13
b1100 !
b1100 .
b10 -
05
14
b111 %
b111 ,
b111 )
#880
0W
0M
0V
0G
0R
0Q
0F
0I
1N
b0z /
0L
0P
1S
03
b0 0
0=
b1101 !
b1101 .
0E
1J
1O
15
0:
1?
b1101 -
1D
04
09
0>
1C
b1000 %
b1000 ,
b1000 )
#890
1I
1F
b1 0
13
b1110 !
b1110 .
b1100 -
05
14
b1001 %
b1001 ,
b1001 )
#900
0W
0V
0Q
1S
0R
0L
1N
0M
b0z /
0G
0F
1I
b0 0
03
b1111 !
b1111 .
1E
15
b1111 -
1:
04
19
b1010 %
b1010 ,
b1010 )
#910
1W
1V
1Q
0S
1R
1L
0N
1M
b111z /
1G
0I
1F
b1 0
13
b10000 !
b10000 .
b1110 -
05
14
b1011 %
b1011 ,
b1011 )
#920
0M
0G
0R
0F
0I
0N
b100z /
0L
1P
03
b100 0
1=
b10001 !
b10001 .
0E
0J
15
0:
b1001 -
0?
04
09
1>
b1100 %
b1100 ,
b1100 )
#930
1I
1F
b101 0
13
b10010 !
b10010 .
b1000 -
05
14
b1101 %
b1101 ,
b1101 )
#940
0N
0M
b100z /
0G
0F
1I
b100 0
03
b10011 !
b10011 .
1E
15
b1011 -
1:
04
19
b1110 %
b1110 ,
b1110 )
#950
1N
1M
b101z /
1G
0I
1F
b101 0
13
b10100 !
b10100 .
b1010 -
05
14
b1111 %
b1111 ,
b1111 )
#960
0M
0W
0G
0V
1I
0R
0Q
1N
b0z /
0L
0P
b110 !
b110 .
0S
0F
0=
b0 0
03
1J
0O
1?
b110 -
0D
04
09
0>
0C
02
17
b0 %
b0 ,
b110 $
b110 +
b110 (
b0 )
#970
b111 !
b111 .
b111 -
15
14
b1 %
b1 ,
b1 )
#980
1S
1R
b10z /
1L
0N
0I
1K
b10 0
18
b1000 !
b1000 .
0E
05
b100 -
0:
04
19
b10 %
b10 ,
b10 )
#990
b1001 !
b1001 .
b101 -
15
14
b11 %
b11 ,
b11 )
#1000
0W
0V
0Q
0R
1S
b0z /
0L
1I
0K
0N
1P
08
b100 0
1=
b1010 !
b1010 .
1E
0J
05
1:
b10 -
0?
04
09
1>
b100 %
b100 ,
b100 )
#1010
b1011 !
b1011 .
b11 -
15
14
b101 %
b101 ,
b101 )
#1020
1N
0I
1K
b110 0
18
b1100 !
b1100 .
0E
05
b0 -
0:
04
19
b110 %
b110 ,
b110 )
#1030
b1101 !
b1101 .
b1 -
15
14
b111 %
b111 ,
b111 )
#1040
0W
0R
0V
0L
b0z /
0Q
1I
0K
1N
0P
1S
08
b0 0
0=
b1110 !
b1110 .
1E
1J
1O
05
1:
1?
b1110 -
1D
04
09
0>
1C
b1000 %
b1000 ,
b1000 )
#1050
b1111 !
b1111 .
b1111 -
15
14
b1001 %
b1001 ,
b1001 )
#1060
1W
1V
1Q
0S
1R
b110z /
1L
0N
0I
1K
b10 0
18
b10000 !
b10000 .
0E
05
b1100 -
0:
04
19
b1010 %
b1010 ,
b1010 )
#1070
b10001 !
b10001 .
b1101 -
15
14
b1011 %
b1011 ,
b1011 )
#1080
0R
0S
b100z /
0L
1I
0K
0N
1P
08
b100 0
1=
b10010 !
b10010 .
1E
0J
05
1:
b1010 -
0?
04
09
1>
b1100 %
b1100 ,
b1100 )
#1090
b10011 !
b10011 .
b1011 -
15
14
b1101 %
b1101 ,
b1101 )
#1100
1N
0I
1K
b110 0
18
b10100 !
b10100 .
0E
05
b1000 -
0:
04
19
b1110 %
b1110 ,
b1110 )
#1110
b10101 !
b10101 .
b1001 -
15
14
b1111 %
b1111 ,
b1111 )
#1120
0W
0R
0V
0L
b0z /
0Q
1I
0K
1N
0P
b111 !
b111 .
0S
08
b0 0
0=
1E
1J
0O
1:
1?
b111 -
0D
04
09
0>
0C
12
b0 %
b0 ,
b111 $
b111 +
b111 (
b0 )
#1130
1S
1R
1L
0N
1M
b11z /
1G
0I
1F
b1 0
13
b1000 !
b1000 .
b110 -
05
14
b1 %
b1 ,
b1 )
#1140
0M
0N
b10z /
0G
0F
0I
1K
03
b10 0
18
b1001 !
b1001 .
0E
15
b101 -
0:
04
19
b10 %
b10 ,
b10 )
#1150
1I
1F
b11 0
13
b1010 !
b1010 .
b100 -
05
14
b11 %
b11 ,
b11 )
#1160
0W
0V
0Q
0M
0R
1S
0G
b0z /
0L
0F
1I
0K
0N
1P
03
08
b100 0
1=
b1011 !
b1011 .
1E
0J
15
1:
b11 -
0?
04
09
1>
b100 %
b100 ,
b100 )
#1170
1N
1M
b1z /
1G
0I
1F
b101 0
13
b1100 !
b1100 .
b10 -
05
14
b101 %
b101 ,
b101 )
#1180
0W
0V
0Q
1S
0R
0L
0M
1N
b0z /
0G
0F
0I
1K
03
b110 0
18
b1101 !
b1101 .
0E
15
b1 -
0:
04
19
b110 %
b110 ,
b110 )
#1190
1I
1F
b111 0
13
b1110 !
b1110 .
b0 -
05
14
b111 %
b111 ,
b111 )
#1200
0W
0M
0R
0V
0G
0L
b0z /
0Q
0F
1I
0K
1N
0P
1S
03
08
b0 0
0=
b1111 !
b1111 .
1E
1J
1O
15
1:
1?
b1111 -
1D
04
09
0>
1C
b1000 %
b1000 ,
b1000 )
#1210
1W
1V
1Q
0S
1R
1L
0N
1M
b111z /
1G
0I
1F
b1 0
13
b10000 !
b10000 .
b1110 -
05
14
b1001 %
b1001 ,
b1001 )
#1220
0M
0N
b110z /
0G
0F
0I
1K
03
b10 0
18
b10001 !
b10001 .
0E
15
b1101 -
0:
04
19
b1010 %
b1010 ,
b1010 )
#1230
1I
1F
b11 0
13
b10010 !
b10010 .
b1100 -
05
14
b1011 %
b1011 ,
b1011 )
#1240
0M
0R
0S
0G
b100z /
0L
0F
1I
0K
0N
1P
03
08
b100 0
1=
b10011 !
b10011 .
1E
0J
15
1:
b1011 -
0?
04
09
1>
b1100 %
b1100 ,
b1100 )
#1250
1N
1M
b101z /
1G
0I
1F
b101 0
13
b10100 !
b10100 .
b1010 -
05
14
b1101 %
b1101 ,
b1101 )
#1260
0S
0R
0L
0M
1N
b100z /
0G
0F
0I
1K
03
b110 0
18
b10101 !
b10101 .
0E
15
b1001 -
0:
04
19
b1110 %
b1110 ,
b1110 )
#1270
1I
1F
b111 0
13
b10110 !
b10110 .
b1000 -
05
14
b1111 %
b1111 ,
b1111 )
#1280
0W
0V
b0z /
0Q
0I
0N
b1000 !
b1000 .
1S
0F
0K
0P
03
08
b0 0
0=
04
09
0>
0C
02
07
0<
1A
b0 %
b0 ,
b1000 $
b1000 +
b1000 (
b0 )
#1290
b1001 !
b1001 .
b1001 -
15
14
b1 %
b1 ,
b1 )
#1300
1I
b1010 !
b1010 .
1E
05
b1010 -
1:
04
19
b10 %
b10 ,
b10 )
#1310
b1011 !
b1011 .
b1011 -
15
14
b11 %
b11 ,
b11 )
#1320
0I
1N
b1100 !
b1100 .
0E
1J
05
0:
b1100 -
1?
04
09
1>
b100 %
b100 ,
b100 )
#1330
b1101 !
b1101 .
b1101 -
15
14
b101 %
b101 ,
b101 )
#1340
1I
b1110 !
b1110 .
1E
05
b1110 -
1:
04
19
b110 %
b110 ,
b110 )
#1350
b1111 !
b1111 .
b1111 -
15
14
b111 %
b111 ,
b111 )
#1360
1W
0I
0N
0S
1U
b1000 0
1B
b10000 !
b10000 .
0E
0J
0O
05
0:
0?
b0 -
0D
04
09
0>
1C
b1000 %
b1000 ,
b1000 )
#1370
b10001 !
b10001 .
b1 -
15
14
b1001 %
b1001 ,
b1001 )
#1380
1I
b10010 !
b10010 .
1E
05
b10 -
1:
04
19
b1010 %
b1010 ,
b1010 )
#1390
b10011 !
b10011 .
b11 -
15
14
b1011 %
b1011 ,
b1011 )
#1400
0I
1N
b10100 !
b10100 .
0E
1J
05
0:
b100 -
1?
04
09
1>
b1100 %
b1100 ,
b1100 )
#1410
b10101 !
b10101 .
b101 -
15
14
b1101 %
b1101 ,
b1101 )
#1420
1I
b10110 !
b10110 .
1E
05
b110 -
1:
04
19
b1110 %
b1110 ,
b1110 )
#1430
b10111 !
b10111 .
b111 -
15
14
b1111 %
b1111 ,
b1111 )
#1440
0W
0I
0N
b1001 !
b1001 .
1S
0U
b0 0
0B
0E
0J
1O
0:
0?
b1001 -
1D
04
09
0>
0C
12
b0 %
b0 ,
b1001 $
b1001 +
b1001 (
b0 )
#1450
1I
1F
b1 0
13
b1010 !
b1010 .
b1000 -
05
14
b1 %
b1 ,
b1 )
#1460
0N
0M
b0z /
0G
0F
1I
b0 0
03
b1011 !
b1011 .
1E
15
b1011 -
1:
04
19
b10 %
b10 ,
b10 )
#1470
1N
1M
b1z /
1G
0I
1F
b1 0
13
b1100 !
b1100 .
b1010 -
05
14
b11 %
b11 ,
b11 )
#1480
0W
0V
0Q
0M
1S
0G
0R
0F
0I
1N
b0z /
0L
b0 0
03
b1101 !
b1101 .
0E
1J
15
0:
b1101 -
1?
04
09
1>
b100 %
b100 ,
b100 )
#1490
1I
1F
b1 0
13
b1110 !
b1110 .
b1100 -
05
14
b101 %
b101 ,
b101 )
#1500
0W
0V
0Q
1S
0R
0L
1N
0M
b0z /
0G
0F
1I
b0 0
03
b1111 !
b1111 .
1E
15
b1111 -
1:
04
19
b110 %
b110 ,
b110 )
#1510
1W
1V
1Q
0S
1R
1L
0N
1M
b111z /
1G
0I
1F
b1 0
13
b10000 !
b10000 .
b1110 -
05
14
b111 %
b111 ,
b111 )
#1520
0"
0M
0G
0R
0V
0F
0I
0N
0L
0S
b0z /
0Q
1U
03
b1000 0
1B
b10001 !
b10001 .
0E
0J
0O
15
0:
0?
b1 -
0D
04
09
0>
1C
b1000 %
b1000 ,
b1000 )
#1530
1I
1F
b1001 0
13
b10010 !
b10010 .
b0 -
05
14
b1001 %
b1001 ,
b1001 )
#1540
0N
0M
b0z /
0G
0F
1I
b1000 0
03
b10011 !
b10011 .
1E
15
b11 -
1:
04
19
b1010 %
b1010 ,
b1010 )
#1550
1N
1M
b1z /
1G
0I
1F
b1001 0
13
b10100 !
b10100 .
b10 -
05
14
b1011 %
b1011 ,
b1011 )
#1560
0M
0S
0G
0R
0F
0I
1N
b0z /
0L
b1000 0
03
b10101 !
b10101 .
0E
1J
15
0:
b101 -
1?
04
09
1>
b1100 %
b1100 ,
b1100 )
#1570
1I
1F
b1001 0
13
b10110 !
b10110 .
b100 -
05
14
b1101 %
b1101 ,
b1101 )
#1580
0S
0R
0L
1N
0M
b0z /
0G
0F
1I
b1000 0
03
b10111 !
b10111 .
1E
15
b111 -
1:
04
19
b1110 %
b1110 ,
b1110 )
#1590
1S
1R
1L
0N
1M
b11z /
1G
0I
1F
b1001 0
13
b11000 !
b11000 .
b110 -
05
14
b1111 %
b1111 ,
b1111 )
#1600
0W
0M
0G
1I
0R
0V
0N
0L
b1010 !
b1010 .
1S
b0z /
0Q
0U
0F
0B
b0 0
03
0J
1O
0?
b1010 -
1D
04
09
0>
0C
02
17
b0 %
b0 ,
b1010 $
b1010 +
b1010 (
b0 )
#1610
b1011 !
b1011 .
b1011 -
15
14
b1 %
b1 ,
b1 )
#1620
1N
0I
1K
b10 0
18
b1100 !
b1100 .
0E
05
b1000 -
0:
04
19
b10 %
b10 ,
b10 )
#1630
b1101 !
b1101 .
b1001 -
15
14
b11 %
b11 ,
b11 )
#1640
0W
0V
0Q
1S
0R
b0z /
0L
1I
0K
1N
b0 0
08
b1110 !
b1110 .
1E
1J
05
1:
b1110 -
1?
04
09
1>
b100 %
b100 ,
b100 )
#1650
b1111 !
b1111 .
b1111 -
15
14
b101 %
b101 ,
b101 )
#1660
1W
1V
1Q
0S
1R
b110z /
1L
0N
0I
1K
b10 0
18
b10000 !
b10000 .
0E
05
b1100 -
0:
04
19
b110 %
b110 ,
b110 )
#1670
b10001 !
b10001 .
b1101 -
15
14
b111 %
b111 ,
b111 )
#1680
0"
0R
0L
0V
1I
0K
0N
0S
b0z /
0Q
1U
08
b1000 0
1B
b10010 !
b10010 .
1E
0J
0O
05
1:
0?
b10 -
0D
04
09
0>
1C
b1000 %
b1000 ,
b1000 )
#1690
b10011 !
b10011 .
b11 -
15
14
b1001 %
b1001 ,
b1001 )
#1700
1N
0I
1K
b1010 0
18
b10100 !
b10100 .
0E
05
b0 -
0:
04
19
b1010 %
b1010 ,
b1010 )
#1710
b10101 !
b10101 .
b1 -
15
14
b1011 %
b1011 ,
b1011 )
#1720
0S
0R
b0z /
0L
1I
0K
1N
b1000 0
08
b10110 !
b10110 .
1E
1J
05
1:
b110 -
1?
04
09
1>
b1100 %
b1100 ,
b1100 )
#1730
b10111 !
b10111 .
b111 -
15
14
b1101 %
b1101 ,
b1101 )
#1740
1S
1R
b10z /
1L
0N
0I
1K
b1010 0
18
b11000 !
b11000 .
0E
05
b100 -
0:
04
19
b1110 %
b1110 ,
b1110 )
#1750
b11001 !
b11001 .
b101 -
15
14
b1111 %
b1111 ,
b1111 )
#1760
0W
0R
0L
0V
1I
0K
0N
b1011 !
b1011 .
1S
b0z /
0Q
0U
08
b0 0
0B
1E
0J
1O
1:
0?
b1011 -
1D
04
09
0>
0C
12
b0 %
b0 ,
b1011 $
b1011 +
b1011 (
b0 )
#1770
1N
1M
b1z /
1G
0I
1F
b1 0
13
b1100 !
b1100 .
b1010 -
05
14
b1 %
b1 ,
b1 )
#1780
0W
0V
0Q
1S
0R
0L
0M
1N
b0z /
0G
0F
0I
1K
03
b10 0
18
b1101 !
b1101 .
0E
15
b1001 -
0:
04
19
b10 %
b10 ,
b10 )
#1790
1I
1F
b11 0
13
b1110 !
b1110 .
b1000 -
05
14
b11 %
b11 ,
b11 )
#1800
0W
0V
0Q
1S
0M
0R
0G
b0z /
0L
0F
1I
0K
1N
03
b0 0
08
b1111 !
b1111 .
1E
1J
15
1:
b1111 -
1?
04
09
1>
b100 %
b100 ,
b100 )
#1810
1W
1V
1Q
0S
1R
1L
0N
1M
b111z /
1G
0I
1F
b1 0
13
b10000 !
b10000 .
b1110 -
05
14
b101 %
b101 ,
b101 )
#1820
0M
0N
b110z /
0G
0F
0I
1K
03
b10 0
18
b10001 !
b10001 .
0E
15
b1101 -
0:
04
19
b110 %
b110 ,
b110 )
#1830
1I
1F
b11 0
13
b10010 !
b10010 .
b1100 -
05
14
b111 %
b111 ,
b111 )
#1840
0"
0M
0R
0G
0L
0V
0F
1I
0K
0N
0S
b0z /
0Q
1U
03
08
b1000 0
1B
b10011 !
b10011 .
1E
0J
0O
15
1:
0?
b11 -
0D
04
09
0>
1C
b1000 %
b1000 ,
b1000 )
#1850
1N
1M
b1z /
1G
0I
1F
b1001 0
13
b10100 !
b10100 .
b10 -
05
14
b1001 %
b1001 ,
b1001 )
#1860
0S
0R
0L
0M
1N
b0z /
0G
0F
0I
1K
03
b1010 0
18
b10101 !
b10101 .
0E
15
b1 -
0:
04
19
b1010 %
b1010 ,
b1010 )
#1870
1I
1F
b1011 0
13
b10110 !
b10110 .
b0 -
05
14
b1011 %
b1011 ,
b1011 )
#1880
0S
0M
0R
0G
b0z /
0L
0F
1I
0K
1N
03
b1000 0
08
b10111 !
b10111 .
1E
1J
15
1:
b111 -
1?
04
09
1>
b1100 %
b1100 ,
b1100 )
#1890
1S
1R
1L
0N
1M
b11z /
1G
0I
1F
b1001 0
13
b11000 !
b11000 .
b110 -
05
14
b1101 %
b1101 ,
b1101 )
#1900
0M
0N
b10z /
0G
0F
0I
1K
03
b1010 0
18
b11001 !
b11001 .
0E
15
b101 -
0:
04
19
b1110 %
b1110 ,
b1110 )
